FAQ - Error: Must be used within a selecting function — faq-selection-context • tidyselect
…
my_vars <- c(name, species, ends_with("color"))
#> Error in eval(expr, envir, enclos): object 'name' not found

To make this work you’ll need to do two things:
Wrap the whole thing in a function

Use any_of() or all_of() instead of bare variable names

my_vars <- function() {
  c(any_of(c("name", "species")), ends_with("color"))
}
dplyr::select(starwars, my_vars())
#> # A tibble: 87 x 5
#>   name           species hair_color skin_color  eye_color
#>   <chr>          <chr>   <chr>      <chr>       <chr>    
#> 1 Luke Skywalker Human   blond      fair        blue     
#> 2 C-3PO          Droid   <NA>       gold        yellow   
#> 3 R2-D2          Droid   <NA>       white, blue red      
#> 4 Darth Vader    Human   none       white       yellow   
#> # ... with 83 more rows
…
