Technical description of tidyselect • tidyselect
…
dups %>% select_loc(x, foo = 3)
#>   x foo 
#>   1   3

dups %>% rename_loc(foo = 3)
#> foo 
#>   3

Acknowledgements

The tidyselect syntax was inspired by the base::subset() function written by Peter Dalgaard. The select parameter of subset.data.frame() is evaluated in a data mask where the column names are bound to their locations in the data frame. This allows : to create sequences of variable locations. The locations can be combined with c(). This selection interface set the tone for the development of the tidyselect syntax.

mtcars %>% subset(select = c(cyl, hp:wt))
#> # A tibble: 32 x 4
#>     cyl    hp  drat    wt
#>   <dbl> <dbl> <dbl> <dbl>
#> 1     6   110  3.9   2.62
#> 2     6   110  3.9   2.88
#> 3     4    93  3.85  2.32
#> 4     6   110  3.08  3.22
#> # … with 28 more rows
…
