Implementing tidyselect interfaces • tidyselect
…
The following examples illustrate how you could write a function that takes a selection of data and returns the corresponding data frame with capitalised names:

# Passing dots
toupper_dots <- function(data, ...) {
  sel <- dplyr::select(data, ...)
  rlang::set_names(sel, toupper)
}
# Interpolating a named argument with {{ }}
toupper_arg <- function(data, arg) {
  sel <- dplyr::select(data, {{ arg }})
  rlang::set_names(sel, toupper)
}

mtcars %>% toupper_dots(mpg:disp, vs)
#> # A tibble: 32 x 4
#>     MPG   CYL  DISP    VS
#>   <dbl> <dbl> <dbl> <dbl>
#> 1  21       6   160     0
#> 2  21       6   160     0
#> 3  22.8     4   108     1
#> 4  21.4     6   258     1
#> # … with 28 more rows

mtcars %>% toupper_arg(c(mpg:disp, vs))
#> # A tibble: 32 x 4
#>     MPG   CYL  DISP    VS
#>   <dbl> <dbl> <dbl> <dbl>
#> 1  21       6   160     0
#> 2  21       6   160     0
#> 3  22.8     4   108     1
#> 4  21.4     6   258     1
#> # … with 28 more rows
…
Resume evaluation of the defused c() expression with eval_select().

Use the vector of locations returned by eval_select() to subset and rename the input data.

Here is how to reimplement dplyr::select() in 3 lines representing each of the steps above:

select <- function(.data, ...) {
  expr <- rlang::expr(c(...))
  pos <- eval_select(expr, data = .data)
  rlang::set_names(.data[pos], names(pos))
}

mtcars %>%
  select(mpg, cyl)
#> # A tibble: 32 x 2
#>     mpg   cyl
#>   <dbl> <dbl>
#> 1  21       6
#> 2  21       6
#> 3  22.8     4
#> 4  21.4     6
#> # … with 28 more rows

Simple selections with named arguments

If your selecting function takes named arguments, the defusing step is a bit different. We need to use enquo() to defuse the function argument itself.

select <- function(.data, cols) {
  expr <- rlang::enquo(cols)
  pos <- eval_select(expr, data = .data)
  rlang::set_names(.data[pos], names(pos))
}

mtcars %>%
  select(c(mpg, cyl))
#> # A tibble: 32 x 2
#>     mpg   cyl
#>   <dbl> <dbl>
#> 1  21       6
#> 2  21       6
#> 3  22.8     4
#> 4  21.4     6
#> # … with 28 more rows
…
mtcars %>% wrapper(foo = mpg, bar = hp:wt)
#>  foo bar1 bar2 bar3 
#>    1    4    5    6

As an example of how to use the vector of locations returned by eval_rename(), here is how to implement dplyr::rename():

rename <- function(.data, ...) {
  pos <- eval_rename(rlang::expr(c(...)), .data)
  names(.data)[pos] <- names(pos)
  .data
}

mtcars %>%
  rename(foo = mpg, bar = hp:wt)
#> # A tibble: 32 x 11
#>     foo   cyl  disp  bar1  bar2  bar3  qsec    vs    am  gear  carb
#>   <dbl> <dbl> <dbl> <dbl> <dbl> <dbl> <dbl> <dbl> <dbl> <dbl> <dbl>
#> 1  21       6   160   110  3.9   2.62  16.5     0     1     4     4
#> 2  21       6   160   110  3.9   2.88  17.0     0     1     4     4
#> 3  22.8     4   108    93  3.85  2.32  18.6     1     1     4     1
#> 4  21.4     6   258   110  3.08  3.22  19.4     1     0     3     1
#> # … with 28 more rows
…
invisible(eval_select(x, data = mtcars))
#>  [1] "mpg"  "cyl"  "disp" "hp"   "drat" "wt"   "qsec" "vs"   "am"   "gear"
#> [11] "carb"

Such properties temporarily available by calling a function like peek_vars() are called descriptors. Descriptors are useful because they are very easy to compose. For instance, a user could combine starts_with() and ends_with() without having to worry about passing the variables or the environment in which they can be found:

my_selector <- function(prefix, suffix) {
  intersect(
    starts_with(prefix),
    ends_with(suffix)
  )
}

iris %>% select(my_selector("Sepal", "Length"))
#> # A tibble: 150 x 1
#>   Sepal.Length
#>          <dbl>
#> 1          5.1
#> 2          4.9
#> 3          4.7
#> 4          4.6
#> # … with 146 more rows

To create a new selection helper:

Inspect the variables with peek_vars(). By convention this should be done in an argument that the user can override.

Return one of the supported data types: vector of names or locations (the latter is recommended, see section on handling duplicate variables), or a predicate function.

if_width <- function(n, vars = peek_vars(fn = "if_width")) {
  vars[nchar(vars) == n]
}

mtcars %>% select(if_width(2))
#> # A tibble: 32 x 4
#>      hp    wt    vs    am
#>   <dbl> <dbl> <dbl> <dbl>
#> 1   110  2.62     0     1
#> 2   110  2.88     0     1
#> 3    93  2.32     1     1
#> 4   110  3.22     1     0
#> # … with 28 more rows
…
